,date,city,rent,product
0,2022-01-01,Eskişehir,1,1277
1,2022-01-02,Düzce,7,1238
2,2022-01-03,Kocaeli,11,1911
3,2022-01-04,Karabük,5,1006
4,2022-01-05,Çankırı,17,1079
5,2022-01-06,Konya,17,1364
6,2022-01-07,Niğde,14,1790
7,2022-01-08,Aksaray,12,1317
8,2022-01-09,Edirne,2,1289
9,2022-01-10,Batman,15,1248
10,2022-01-11,Burdur,9,1316
11,2022-01-12,Osmaniye,17,1656
12,2022-01-13,Düzce,8,1146
13,2022-01-14,Kahramanmaraş,7,1628
14,2022-01-15,Isparta,17,1754
15,2022-01-16,Kırklareli,9,1631
16,2022-01-17,Sakarya,9,1090
17,2022-01-18,Balıkesir,17,1934
18,2022-01-19,Tokat,7,1135
19,2022-01-20,Bingöl,11,1491
20,2022-01-21,Adana,5,1830
21,2022-01-22,Batman,1,1982
22,2022-01-23,Kırşehir,6,1752
23,2022-01-24,Edirne,11,1518
24,2022-01-25,Denizli,16,1552
25,2022-01-26,Adıyaman,4,1504
26,2022-01-27,Muş,10,1078
27,2022-01-28,İçel (Mersin),2,1266
28,2022-01-29,Muğla,16,1020
29,2022-01-30,Yalova,7,1355
30,2022-01-31,Gaziantep,7,1727
31,2022-02-01,Erzurum,1,1463
32,2022-02-02,Tokat,1,1073
33,2022-02-03,Konya,16,1626
34,2022-02-04,Konya,9,1757
35,2022-02-05,Kırklareli,7,1783
36,2022-02-06,Osmaniye,12,1636
37,2022-02-07,Batman,2,1317
38,2022-02-08,İzmir,3,1296
39,2022-02-09,Gümüşhane,7,1771
40,2022-02-10,Gümüşhane,5,1264
41,2022-02-11,Çanakkale,2,1434
42,2022-02-12,Nevşehir,12,1311
43,2022-02-13,Nevşehir,2,1612
44,2022-02-14,İçel (Mersin),7,1849
45,2022-02-15,Kırşehir,3,1217
46,2022-02-16,Karabük,17,1004
47,2022-02-17,Aydın,15,1563
48,2022-02-18,Kırşehir,12,1361
49,2022-02-19,Zonguldak,17,1393
50,2022-02-20,Kırklareli,4,1193
51,2022-02-21,Trabzon,2,1719
52,2022-02-22,Çankırı,5,1917
53,2022-02-23,Ankara,1,1408
54,2022-02-24,Isparta,16,1806
55,2022-02-25,Manisa,12,1855
56,2022-02-26,Isparta,14,1204
57,2022-02-27,Kırşehir,16,1121
58,2022-02-28,Aksaray,3,1168
59,2022-03-01,Bilecik,17,1550
60,2022-03-02,Iğdır,6,1098
61,2022-03-03,Ağrı,3,1471
62,2022-03-04,Ordu,1,1197
63,2022-03-05,Zonguldak,12,1405
64,2022-03-06,İzmir,13,1246
65,2022-03-07,Van,15,1573
66,2022-03-08,Kocaeli,5,1529
67,2022-03-09,Kırıkkale,4,1877
68,2022-03-10,Samsun,7,1320
69,2022-03-11,Bayburt,16,1697
70,2022-03-12,Sinop,15,1145
71,2022-03-13,Ankara,9,1918
72,2022-03-14,İzmir,7,1788
73,2022-03-15,Siirt,7,1861
74,2022-03-16,Tunceli,9,1524
75,2022-03-17,Burdur,7,1416
76,2022-03-18,Adana,4,1460
77,2022-03-19,Giresun,10,1113
78,2022-03-20,Erzincan,6,1762
79,2022-03-21,Düzce,13,1183
80,2022-03-22,Konya,5,1010
81,2022-03-23,Ordu,10,1613
82,2022-03-24,Tokat,11,1577
83,2022-03-25,Osmaniye,3,1449
84,2022-03-26,Bolu,11,1937
85,2022-03-27,Aksaray,11,1570
86,2022-03-28,Karaman,5,1581
87,2022-03-29,Hatay,3,1131
88,2022-03-30,Adana,6,1858
89,2022-03-31,Osmaniye,14,1011
90,2022-04-01,Kars,15,1108
91,2022-04-02,Niğde,7,1757
92,2022-04-03,Van,11,1339
93,2022-04-04,Aksaray,11,1938
94,2022-04-05,Manisa,6,1656
95,2022-04-06,Kırşehir,14,1092
96,2022-04-07,Bursa,4,1216
97,2022-04-08,Amasya,6,1844
98,2022-04-09,Şanlıurfa,6,1169
99,2022-04-10,Siirt,7,1280
100,2022-04-11,Siirt,5,1626
101,2022-04-12,Kastamonu,6,1782
102,2022-04-13,Iğdır,4,1383
103,2022-04-14,Bingöl,16,1475
104,2022-04-15,Şanlıurfa,17,1751
105,2022-04-16,Ardahan,17,1344
106,2022-04-17,Amasya,15,1210
107,2022-04-18,Eskişehir,17,1930
108,2022-04-19,Tunceli,7,1509
109,2022-04-20,Şırnak,5,1924
110,2022-04-21,Iğdır,4,1749
111,2022-04-22,Iğdır,9,1802
112,2022-04-23,Kahramanmaraş,1,1832
113,2022-04-24,İçel (Mersin),16,1259
114,2022-04-25,Kahramanmaraş,4,1046
115,2022-04-26,Çanakkale,12,1091
116,2022-04-27,Samsun,3,1944
117,2022-04-28,Adıyaman,10,1072
118,2022-04-29,Zonguldak,11,1283
119,2022-04-30,Kocaeli,5,1237
120,2022-05-01,Gaziantep,5,1244
121,2022-05-02,Hatay,13,1604
122,2022-05-03,Çanakkale,5,1125
123,2022-05-04,Gaziantep,3,1538
124,2022-05-05,Karaman,16,1812
125,2022-05-06,Gaziantep,6,1209
126,2022-05-07,Kocaeli,5,1484
127,2022-05-08,Kütahya,2,1021
128,2022-05-09,Malatya,6,1752
129,2022-05-10,Iğdır,14,1825
130,2022-05-11,Tunceli,2,1331
131,2022-05-12,Zonguldak,3,1635
132,2022-05-13,Bilecik,17,1439
133,2022-05-14,Afyon,9,1045
134,2022-05-15,Eskişehir,8,1936
135,2022-05-16,Kocaeli,5,1920
136,2022-05-17,Bilecik,7,1434
137,2022-05-18,Konya,4,1470
138,2022-05-19,Edirne,15,1198
139,2022-05-20,Tekirdağ,11,1668
140,2022-05-21,Isparta,17,1223
141,2022-05-22,Iğdır,4,1369
142,2022-05-23,Siirt,7,1245
143,2022-05-24,Kars,13,1808
144,2022-05-25,Tekirdağ,11,1093
145,2022-05-26,Adana,13,1472
146,2022-05-27,Edirne,8,1872
147,2022-05-28,Bingöl,6,1062
148,2022-05-29,Eskişehir,12,1935
149,2022-05-30,Çanakkale,12,1455
150,2022-05-31,Muş,2,1127
151,2022-06-01,Şanlıurfa,6,1632
152,2022-06-02,Kırklareli,7,1158
153,2022-06-03,Kahramanmaraş,11,1625
154,2022-06-04,Zonguldak,13,1077
155,2022-06-05,Bilecik,16,1113
156,2022-06-06,Uşak,14,1241
157,2022-06-07,Elazığ,17,1675
158,2022-06-08,Elazığ,10,1688
159,2022-06-09,Tunceli,11,1202
160,2022-06-10,Edirne,14,1830
161,2022-06-11,Muğla,10,1742
162,2022-06-12,Amasya,6,1676
163,2022-06-13,Isparta,17,1164
164,2022-06-14,Edirne,9,1509
165,2022-06-15,Manisa,3,1649
166,2022-06-16,İzmir,14,1315
167,2022-06-17,Sinop,13,1465
168,2022-06-18,Kütahya,17,1115
169,2022-06-19,Muğla,15,1802
170,2022-06-20,Afyon,10,1445
171,2022-06-21,Balıkesir,9,1575
172,2022-06-22,Zonguldak,13,1440
173,2022-06-23,Isparta,12,1941
174,2022-06-24,Tunceli,5,1900
175,2022-06-25,Düzce,15,1193
176,2022-06-26,Edirne,16,1865
177,2022-06-27,Isparta,12,1174
178,2022-06-28,Çanakkale,17,1769
179,2022-06-29,Erzincan,15,1258
180,2022-06-30,Trabzon,9,1813
181,2022-07-01,Bitlis,8,1119
182,2022-07-02,Uşak,6,1767
183,2022-07-03,Edirne,8,1723
184,2022-07-04,Şanlıurfa,16,1184
185,2022-07-05,Isparta,13,1579
186,2022-07-06,Giresun,5,1415
187,2022-07-07,Hakkari,1,1288
188,2022-07-08,Burdur,5,1043
189,2022-07-09,Bingöl,16,1322
190,2022-07-10,Siirt,13,1361
191,2022-07-11,Bilecik,6,1949
192,2022-07-12,Afyon,5,1739
193,2022-07-13,Tokat,3,1227
194,2022-07-14,Ağrı,4,1791
195,2022-07-15,Konya,5,1063
196,2022-07-16,Manisa,14,1062
197,2022-07-17,Erzurum,8,1601
198,2022-07-18,Isparta,11,1148
199,2022-07-19,Niğde,2,1578
200,2022-07-20,Düzce,17,1504
201,2022-07-21,Gaziantep,5,1055
202,2022-07-22,Gaziantep,15,1066
203,2022-07-23,Amasya,15,1472
204,2022-07-24,Konya,3,1396
205,2022-07-25,Bingöl,17,1612
206,2022-07-26,Adana,6,1116
207,2022-07-27,Adıyaman,5,1556
208,2022-07-28,Aksaray,11,1375
209,2022-07-29,Trabzon,6,1216
210,2022-07-30,Edirne,11,1756
211,2022-07-31,Bayburt,2,1056
212,2022-08-01,Çanakkale,1,1918
213,2022-08-02,Ankara,16,1504
214,2022-08-03,Aksaray,4,1146
215,2022-08-04,Diyarbakır,15,1168
216,2022-08-05,Yozgat,13,1983
217,2022-08-06,Erzincan,15,1983
218,2022-08-07,Çanakkale,8,1855
219,2022-08-08,Kars,13,1375
220,2022-08-09,Tekirdağ,13,1750
221,2022-08-10,Adıyaman,17,1844
222,2022-08-11,Osmaniye,13,1924
223,2022-08-12,Ankara,3,1432
224,2022-08-13,Yozgat,7,1314
225,2022-08-14,Yozgat,2,1654
226,2022-08-15,Muş,7,1139
227,2022-08-16,Iğdır,10,1821
228,2022-08-17,Kayseri,15,1641
229,2022-08-18,Kırklareli,6,1191
230,2022-08-19,Muş,1,1253
231,2022-08-20,Bursa,9,1050
232,2022-08-21,Amasya,10,1221
233,2022-08-22,Zonguldak,2,1381
234,2022-08-23,Kırklareli,7,1763
235,2022-08-24,Kırıkkale,4,1155
236,2022-08-25,Sakarya,16,1157
237,2022-08-26,Adana,9,1612
238,2022-08-27,Çorum,9,1700
239,2022-08-28,Sakarya,12,1883
240,2022-08-29,Diyarbakır,11,1222
241,2022-08-30,Kırşehir,15,1717
242,2022-08-31,Rize,12,1663
243,2022-09-01,Samsun,7,1055
244,2022-09-02,Siirt,9,1376
245,2022-09-03,Uşak,9,1608
246,2022-09-04,Erzincan,16,1873
247,2022-09-05,Bursa,7,1200
248,2022-09-06,İzmir,3,1325
249,2022-09-07,Adıyaman,1,1560
250,2022-09-08,Tokat,17,1676
251,2022-09-09,Yozgat,2,1745
252,2022-09-10,İstanbul,15,1605
253,2022-09-11,Siirt,17,1420
254,2022-09-12,Erzurum,12,1206
255,2022-09-13,Çanakkale,14,1829
256,2022-09-14,Şırnak,16,1709
257,2022-09-15,Muş,9,1340
258,2022-09-16,Şırnak,2,1038
259,2022-09-17,Iğdır,9,1002
260,2022-09-18,Aydın,11,1389
261,2022-09-19,Amasya,9,1252
262,2022-09-20,Çorum,11,1658
263,2022-09-21,İçel (Mersin),11,1351
264,2022-09-22,Amasya,17,1540
265,2022-09-23,Malatya,15,1668
266,2022-09-24,İzmir,1,1814
267,2022-09-25,Muğla,12,1047
268,2022-09-26,Sivas,8,1378
269,2022-09-27,Erzurum,6,1547
270,2022-09-28,Isparta,1,1241
271,2022-09-29,Gümüşhane,2,1420
272,2022-09-30,Bayburt,16,1320
273,2022-10-01,İçel (Mersin),16,1620
274,2022-10-02,Çanakkale,1,1617
275,2022-10-03,Kahramanmaraş,4,1487
276,2022-10-04,Adıyaman,11,1438
277,2022-10-05,Şanlıurfa,8,1466
278,2022-10-06,Aydın,3,1014
279,2022-10-07,Bayburt,11,1199
280,2022-10-08,Bolu,10,1418
281,2022-10-09,Aksaray,12,1599
282,2022-10-10,Hatay,7,1951
283,2022-10-11,Zonguldak,11,1923
284,2022-10-12,Antalya,13,1709
285,2022-10-13,Zonguldak,14,1570
286,2022-10-14,Afyon,17,1598
287,2022-10-15,Isparta,13,1327
288,2022-10-16,Şanlıurfa,2,1021
289,2022-10-17,Artvin,8,1307
290,2022-10-18,Burdur,14,1452
291,2022-10-19,Van,14,1652
292,2022-10-20,Uşak,1,1300
293,2022-10-21,Tekirdağ,2,1838
294,2022-10-22,Eskişehir,12,1530
295,2022-10-23,Isparta,2,1297
296,2022-10-24,Kars,15,1295
297,2022-10-25,Bayburt,15,1971
298,2022-10-26,Malatya,6,1437
299,2022-10-27,Hatay,15,1698
300,2022-10-28,Samsun,14,1979
301,2022-10-29,Kahramanmaraş,14,1285
302,2022-10-30,Muğla,15,1099
303,2022-10-31,Kilis,13,1176
304,2022-11-01,Malatya,9,1853
305,2022-11-02,Gümüşhane,6,1930
306,2022-11-03,Iğdır,2,1366
307,2022-11-04,Kastamonu,2,1513
308,2022-11-05,Konya,10,1260
309,2022-11-06,Çorum,5,1918
310,2022-11-07,Samsun,5,1695
311,2022-11-08,Şırnak,11,1464
312,2022-11-09,Yozgat,11,1380
313,2022-11-10,Osmaniye,7,1859
314,2022-11-11,Artvin,14,1873
315,2022-11-12,Bursa,4,1031
316,2022-11-13,Tunceli,1,1520
317,2022-11-14,Afyon,9,1608
318,2022-11-15,Manisa,17,1846
319,2022-11-16,Yalova,10,1690
320,2022-11-17,Sakarya,5,1012
321,2022-11-18,Bitlis,17,1375
322,2022-11-19,Kütahya,9,1948
323,2022-11-20,Nevşehir,11,1056
324,2022-11-21,Ordu,2,1111
325,2022-11-22,Kayseri,6,1087
326,2022-11-23,Edirne,2,1811
327,2022-11-24,İçel (Mersin),16,1819
328,2022-11-25,Niğde,10,1219
329,2022-11-26,Bursa,11,1122
330,2022-11-27,Antalya,4,1177
331,2022-11-28,Van,1,1691
332,2022-11-29,Bingöl,17,1313
333,2022-11-30,Ordu,1,1661
334,2022-12-01,Tekirdağ,12,1496
335,2022-12-02,Bingöl,12,1786
336,2022-12-03,Gümüşhane,15,1259
337,2022-12-04,Uşak,8,1778
338,2022-12-05,Tunceli,8,1595
339,2022-12-06,Uşak,16,1427
340,2022-12-07,Kırşehir,2,1305
341,2022-12-08,Çorum,3,1113
342,2022-12-09,Düzce,17,1251
343,2022-12-10,Balıkesir,7,1067
344,2022-12-11,Elazığ,11,1541
345,2022-12-12,Adana,5,1692
346,2022-12-13,Kahramanmaraş,3,1333
347,2022-12-14,Bilecik,7,1411
348,2022-12-15,Bayburt,12,1476
349,2022-12-16,Kırşehir,1,1186
350,2022-12-17,Kilis,3,1959
351,2022-12-18,Tekirdağ,16,1803
352,2022-12-19,Kırşehir,5,1186
353,2022-12-20,Malatya,8,1817
354,2022-12-21,Amasya,10,1897
355,2022-12-22,Aksaray,11,1239
356,2022-12-23,Şanlıurfa,5,1924
357,2022-12-24,Karaman,7,1086
358,2022-12-25,Burdur,15,1410
359,2022-12-26,Ardahan,2,1441
360,2022-12-27,İçel (Mersin),7,1521
361,2022-12-28,Tunceli,12,1928
362,2022-12-29,Mardin,7,1405
363,2022-12-30,Çanakkale,16,1284
